{
    "material";[
    {
    	"name":"Bare/Cast Aluminum",
    	 "photo":"aluminum",
    	 "info":"A silvery-white ductile metallic element that is used in a variety of products ranging from soda cans to aircraft components.  Lightweight but durable.  Typical marking color for this material is white but with higher powered lasers a darker charcoal contrast can be achieved.  ",
         "id":0,
    	 "marking":[4]
    	 },

    	  {
    	"name":"Anodized Aluminum",
    	 "photo":"aluminum",
    	 "info":"Aluminum with a coating.  Anodization can come in many colors including clear.  Same marking contrast can be achieved with anodized aluminum and bare aluminum however the laser is removing the coating to expose the white oxide layer offering better contrast than bare aluminum.  ",
    	 "id":1,
         "marking":[0,4,5]
    	 },

    	   {
    	"name":"Brass & Copper",
    	 "photo":"aluminum",
    	 "info":"Copper is a reddish-brown ductile metallic element used as a conductor of electricity or thermal energy and is most commonly used for electrical wiring, water pipes, and/or corrosion resistant parts.  Brass is an alloy comprised of copper and zinc typically in a yellowish color.      Both Brass and Copper mark similarly allowing for both a light or dark contrast depending on the laser settings and wattage. ",
         "id":2,
    	 "marking":[1,4,5 ]
    	 },

    	   {
    	"name":"Carbide",
    	 "photo":"aluminum",
    	 "info":"Carbide is one of the hardest metals on earth and is used mostly for tooling and machinery that fabricate metals.  It is a binary compound consisting mostly of carbon with a more electropositive element and is a darker colored metal.  Laser marking systems can mark this material with a white contrast. ",
         "id":3,
    	 "marking":[1,4,5 ]
    	 },

    	   {
    	"name":"Ceramic",
    	 "photo":"aluminum",
    	 "info":"Ceramic is a hard, brittle, and corrosion resistant material made by firing a nonmetallic mineral at a very high temperature.  It is used in a variety of applications.  Because of the forming process, ceramics can be tricky to laser mark with some offering contrast and others offering no contrast.",
         "id":4,
    	 "marking":[4,5 ]
    	 },
  		{
    	"name":"Coated & Painted Metals",
    	 "photo":"aluminum",
    	 "info":"Powder coating is an electrostatically applied coating using a free-flowing dry powder which is then cured.  The powders are either a thermoplastic or thermoset polymer which offers greater thicknesses compared to liquid coatings.  Powder coating comes in a variety of colors and applications ranging from bicycle parts to automobile parts.     Painted metals are simply any metal with a painted coating.  The paint is applied and dried onto the surface of the metallic substrate. Both powder coating and paint are used to ensure product lifecycles and prevent part corrosion.  Laser marking systems are capable of marking both these types of coatings and can either penetrate the coating to expose the underlying material or they can be controlled to mark only the coating without penetration to keep the protective properties.",
         "id":5,
    	 "marking": [0,4,5 ]
    	 },
    	 	{
    	"name":"Fiberglass & Carbon Fiber",
    	 "photo":"aluminum",
    	 "info":"Fiberglass is a fiber reinforced polymer made of a plastic matrix which is then reinforced by fine fibers of glass.  Very lightweight and extremely robust.  When laser marking, this material will often not mark a completely solid color due to the fibers in which it is comprised.  However, it typically offers a good dark or light contrast depending the color of the fibers and the laser settings. Carbon fiber is a strong and light fiber-reinforced polymer which contains carbon fibers.  In most cases, the binding polymer is epoxy but other substrates can be used such as Kevlar.  Most commonly used in the transportation industry such as automobiles but other medical applications are becoming more commonplace.  Because of the carbon based material composition, the only color this material marks is black. ",
         "id":6,
    	 "marking":[4,5]
    	 },
    	 	{
    	"name":"Nickel",
    	 "photo":"aluminum",
    	 "info":" Nickel is a chemical element that can be used as a plating or coating and offers a polished metallic finish very similar to Chrome and is also considered corrosion-resistant.  It is highly reflective and offers a variety of colors when laser marked. ",
         "id":7,
    	 "marking":[1,4 ] 
    	 },
    	 	{
    	"name":"Plastics",
    	 "photo":"aluminum",
    	 "info":"There are too many types of plastics and compositions of plastics to break this section out by each type.  In general, plastics are a wide range of synthetic or semi-synthetic moldable organic solids.  Marking on plastics depends heavily on the material composition and the absorption of the laser’s wavelength.  Thus, if the material doesn’t absorb the light, it will not mark the plastic.  The contrast on the plastic is also dependent on the material and the reaction with the light.",
    	"id":8,
         "marking":[3,4,2] 
    	 },
    	 	{
    	"name":"Rubber",
    	 "photo":"aluminum",
    	 "info":"Rubber is a polymer comprised of an organic compound called isoprene which can also be called elastomers. Typically, rubber is harvested in the form of latex from certain trees or plants in a process called “tapping.” Rubber is used for many applications due to the large stretch ratio, high resilience, and the fact it water proof. In terms of laser marking, rubbers do not offer contrast but can be etched or engraved.  ",
    	  "id":9,
         "marking":[3,4,2] 
    	 },
    	 	{
    	"name":"Semiconductor",
    	 "photo":"aluminum",
         "id":10,
    	 "info":"There are a wide variety of semiconductor substrates that range from the silicon that is used in wafers for solar cells or integrated circuits, to the solder mask of printed circuit boards. Typically, semiconductor substrates require very sensitive marking and also very precise marking due to the micro size of the parts used in the semiconductor industry. ",
    	 "marking":[0,2,6 ]
         },
    	 
    	 	{
    	"name":"Silver and Gold",
    	 "photo":"aluminum",
    	 "info":"The most common of the precious metals, silver and gold are different while being very similar. Silver is a chemical element that is soft and a transition metal but possesses the highest electrical conductivity and thermal conductivity. It is a very tricky material to laser mark due to the oxidation that takes place when the thermal energy is transferred to the silver directly. In some cases it can turn white and in others it will turn black. Gold is also a chemical element that is soft and yellow in color and is considered a transition metal. The main difference when compared to silver is the fact that gold cannot be oxidized or tarnished like silver. Gold is very simple to laser mark because of these properties and is widely used in electrical components that are required to be corrosion resistant.  ",
    	  "id":11,
         "marking":[1,4 ]
    	 },
    	 {
    	"name":"Stainless Steel/Tool Steel ",
    	 "photo":"aluminum",
    	 "info":"Steel is quite simply the most commonly used metallic substrate in industry. Stainless steel does not readily corrode, rust or stain like common steel but it is still possible under certain conditions. There are many different grades and finishes of stainless steel but all offer incredible versatility when it comes to laser marking. It can be annealed to a variety of colors, not just black as the oxide layer can be more readily controlled by the laser. Tool Steel is a processed steel alloy that is most notable for its hardness and resistance to abrasion and elevated temperatures. Most commonly used in a heat-treated state and is considered a high-carbon steel which is more resistant to corrosion. It is called tool steel because it is better suited to be made into tools for the reasons mentioned above. It does not offer the same flexibility when it comes to laser marking but will offer a dark contrast due to the vast amount of carbon in the steel itself. ",
          "id":12,
    	 "marking":[1,4,5 ]
    	 },
    	 {
    	"name":"Titanium",
    	 "photo":"aluminum",
    	 "info":"Titanium is a chemical element that is considered a transition metal with a silver color and has the highest strength to weight ratio of any metal on earth. It also is fairly low in terms of electrical and thermal conductivity. It is used in many alloys and is most commonly used in aviation, aerospace and marine applications because of the strength to weight ratio and corrosive resistant properties. In terms of laser marking, titanium is very easy to laser mark can offers good contrast when annealing. ",
          "id":13,
    	 "marking":[1,4,5] 
      },
       {
      "name":"Chrome",
       "photo":"aluminum",
       "info":"Chrome is a plating or coating used to offer a polished clean metallic finish on a variety of parts ranging from computers to automobiles. Chrome is simply a plating of a chromium alloy and plating thickness varies depending on the application. Highly reflective but offers a wide range of contrasts and colors when laser marked.",
          "id":14,
       "marking":[1,4] 
      }
    ],

     "marking"; [{
   
        "name":"ablation",
         "info":"The process of removing coatings like anodization, black oxide, plating, masking, or insulation via irradiation from a laser beam. ",
         "photo":"aluminum",
          "id":0,
         "laser":[1,0,3]
         },
          {
        "name":"annealing",
         "info":"The process by which the surface of a material is heated to just below its melting point in order to create oxide layers on the surface. ",
         "photo":"aluminum",
          "id":1,
         "laser":[1,0,3] 
         },
         {
         "name":"colorChange",
         "info":"This mark type uses the energy of the laser beam to alter the molecular structure of the piece making a visible change in the color of the plastic substrate without damaging the surface of the material. ",
         "photo":"aluminum",
          "id":2,
         "laser":[1,2,3]
         },
         {
          "name":"foaming",
         "info":"This mark uses the energy of the laser beam to alter the molecular structure of the piece making a visible change in the color of the substrate without damaging the surface of the material. Foaming is similar to color changing however the process actually raises the level of the material so it appears like a foam on the surface of the plastic. ",
         "photo":"aluminum",
          "id":3,
         "laser":[1,2,3]
         },
             {
          "name":"etching",
         "info":"A process where material is actually removed or vaporized and recast to create depth in the material. The material is removed when the intense power density of the focused laser beam vaporizes the material. The measured depth for etching is less than one thousandth of an inch. ",
         "photo":"aluminum",
          "id":4,
         "laser":[0,1]
         },
              {
          "name":"engrave",
         "info":"A process where material is actually removed or vaporized and recast to create depth in the material. The material is removed when the intense power density of the focused laser beam vaporizes the material. The measured depth for engraving is greater than one thousandth of an inch. ",
         "photo":"aluminum",
          "id":5,
         "laser":[0]
         },
                {
          "name":"burnish",
         "info":"Polishing is a process where the laser’s intensity is reduced to ensure the lightest marking intensity possible. This reduction in energy creates a polishing effect on the surface of the material being marked. ",
         "photo":"aluminum",
          "id":6,
         "laser":[2]
         }


  ],
  "laser"; [{
   
        "name":"UF-Series Fiber Laser",
         "info":"text",
          "photo":"aluminum",
          "id":0
        
         },
          {
        "name":"U-Series YV04 Laser Marker",
         "info":"text",
          "photo":"aluminum",
          "id":1
         },
         {
         "name":"UG-Series Green (532nm) Laser",
         "info":"text",
          "photo":"aluminum",
          "id":2
         },
        {
         "name":"UM-1 Compact Laser Marker",
         "info":"text",
          "photo":"aluminum",
          "id":3
         }
  ],
   "process"; [{
   
        "name":"One Part in, One Part Out (Class 1)",
         "info":"The process of loading in a single part into a Fixture, T-Slot, or Breadboard, closing the door on the workstation, and hitting the mark button. After marking is completed, the single part is unloaded and the process is repeated. ",
          "photo":"aluminum",
          "id":0,
         "enclosure":[0,1,2 ]
         },
          {
        "name":"One Part in, One Part Out (Class 4)",
         "info":"The process of loading in a single part into a Fixture, T-Slot, or Breadboard and hitting the mark button. After marking is completed, the single part is unloaded and the process is repeated. ",
          "photo":"aluminum",
          "id":1,
         "enclosure":[3,4 ] 
         },
         {
         "name":"Batch Marking (Class 1)",
         "info":"The process of loading a tray of parts into a single fixture or breadboard, closing the door on the workstation, and hitting the marking button to mark all the parts at once. After marking is completed, the entire tray is unloaded and the process is repeated. ",
          "photo":"aluminum",
          "id":2,
         "enclosure":[5,2,0,1]
         },
         {
          "name":"Batch Marking (Class 4)",
         "info":"The process of loading a tray of parts into a single fixture or breadboard and hitting the marking button to mark all the parts at once. After marking is completed, the entire tray is unloaded and the process is repeated. ",
          "photo":"aluminum",
          "id":3,
         "enclosure":[3,4]
         },
          {
          "name":"Inline Automation (Class 1)",
         "info":"The process of integrating the laser and workstation into and existing automated process. The parts are automatically fed to the laser marker and the laser marker is triggered by either a PLC or sensor. The laser rating is class I as the laser radiation is enclosed and the workstation is interlocked. ",
          "photo":"aluminum",
          "id":4,
         "enclosure":[6]
         },
          {
          "name":"Inline Automation (Class 4)",
         "info":"* The process of integrating the laser into and existing automated process. The parts are automatically fed to the laser marker and the laser marker is triggered by either a PLC or sensor. The laser rating is class IV as the laser radiation is not enclosed and operators will need to wear laser safety glasses. ",
          "photo":"aluminum",
          "id":5,
         "enclosure":[6]
         },
         {
          "name":"Inline Conveyor, Indexed Marking (Class 1)",
         "info":"The process of integrating the laser into a conveyorized production process. All parts moving along a conveyor and are fed to the laser by the conveyor. When the part is presented to the laser, the conveyor stops the part underneath the laser marker head, and the marking is triggered via a PLC or sensor. The workstation would be adapted to the conveyor so that the parts enter an enclosed marking chamber and the laser radiation is completely blocked making it safe for operators and those passing by the conveyor. ",
          "photo":"aluminum",
          "id":6,
         "enclosure":[6,3,4]
         },
         {
          "name":"Inline Conveyor, Indexed Marking (Class 4)",
         "info":"The process of integrating the laser into a conveyorized production process. All parts moving along a conveyor and are fed to the laser by the conveyor. When the part is presented to the laser, the conveyor stops the part underneath the laser marker head, and the marking is triggered via a PLC or sensor. The hardware setup for the marker head is adapted to the conveyor so that parts can be presented to the laser but the laser is not enclosed and operators and anybody passing by within ten feet will need laser safety glasses. ",
          "photo":"aluminum",
          "id":7,
         "enclosure":[6,3,4,7]
         }
  ],

  "enclosure"; [{
   
        "name":"Large Enc.",
         "info":"The large enclosure is one of our most popular designs of all time. It is simple, rugged and versatile. If you are marking large parts or are using one of our higher powered lasers it is a great choice that can be used virtually anywhere. Despite the larger size it weighs only 63lbs and can be easily moved on a roll cart anywhere in your facility. Along with being versatile it is easy to use. It has an external focusing diode for easy focusing that makes creating a great mark on your part a breeze. There is also internal illumination to verify marking quality and viewing windows to monitor marking. There is also optional equipment like fume extractors, rotary chucks and barcode scanners to help you get the most of your laser marking investment. If your goal is to maximize ROI while giving yourself the most versatility possible from your laser marker the large enclosure is the right choice for you! ",
          "photo":"aluminum",
          "id":0
         },
          {
        "name":"Sliding Door Enclosure",
         "info":"The sliding door enclosure is designed for one in and one out part marking operations or small batches. The door slides to the right out of the user’s way to provide access to the marking area. An external aiming diode is used to find the focus quickly and easily. The Sliding Door Enclosure accommodates only the 100mm (2.5” square marking area) and 163mm (4.25” square marking area) lenses and is inexpensive and very user friendly. ",
          "photo":"aluminum",
          "id":1
         },
         {
          "name":"Zen",
         "info":"The ZEN Programmable Z-Axis Workstation is optimal for marking applications with varying part heights or those with irregular part geometry. Programming the Z-Axis is as easy as entering in the part height with the corresponding marking file and the linear actuator will move the marker head to the correct focal height and mark once it arrives. The Programmable Z-Axis Enclosure is class 1 rated and comes available with an optional fume extractor for materials that leave heavy particulates or noxious gases during marking. The lightweight upswinging door design and T-Slot base enables users to load and unload parts with ease and precision. The ZEN Workstation also has an available mobile cart to make the workstation mobile and portable around your facility. If your goal is to simplify your marking process while ensuring throughput and safety, the Programmable Z-Axis Enclosure is your solution. ",
          "photo":"aluminum",
          "id":2
         },
          {
          "name":"Z-Axis Stand (Top Crank)",
         "info":"Because not everybody is suited for a class I workstation or has parts that fit into a class I workstation, RMI Laser has developed class IV Z-Axis Linear Stands for use with our systems. These stands come with either a top crank or Motorized Programmable Z-Axis adjustments for easy focusing and setup along with a T-slot base to mount fixturing or a breadboard. They are a cheaper alternative to a workstation and were more specifically designed to allow for the marking of larger parts or longer parts. ",
          "photo":"aluminum",
          "id":3
         },
          {
          "name":"Z-Axis Stand (Programmable Z)",
         "info":" ",
          "photo":"aluminum",
          "id":4
         },
         {
         "name":"Rotary Table",
         "info":"Our new Rotary Table Class 1 Enclosure allows you to mark metals, plastics, ceramics, and more in a safe efficient manner. Materials to be marked are placed in a fixture on the rotary table and while those parts are getting marked, the operator has the option to unload and load the next batch of parts increasing the overall throughput of the machine. The Rotary Table Enclosure is class 1 rated, is available with an optional fume extractor for materials that leave heavy particulates or noxious gases during marking. The rotary table rotation and marking is triggered using only the two-handed tie downs and has safety light curtains ensuring no operator can interfere while the table is rotating. An indicator lamp shows the users if the laser is ready for marking, currently marking, or if an error occurred during operation. If your goal is to increase throughput while ensuring safety in high traffic areas, the Class 1 Rotary Table Enclosure is your solution. ",
          "photo":"aluminum",
          "id":5
         },
         {
         "name":"Custom",
         "info":"We here at RMI Laser understand that nobody knows your internal processes and needs better than you. This is why we offer completely customized laser integration that ranges from a simple modified workstation to a fully automated class I production line. We start by determining which of our many laser series is needed for your application. We then look at your production environment, existing processes, and goals to determine the system specifications. We are experts in working with customers to define their work flow needs and have delivered many customized laser marking solutions over the years. The direct experience of working with such a variety of customers allows us to better optimize the solution for your needs while also ensuring that lead times and costs are not prohibitive. ",
          "photo":"aluminum",
          "id":6
         },
         {
         "name":"OEM (Laser System Only)",
         "info":"text",
          "photo":"aluminum",
          "id":7
         }
  ]
}